module github.com/MuhAndriJP/user-service.git

go 1.19

require (
	github.com/golang-jwt/jwt v3.2.2+incompatible
	github.com/labstack/echo/v4 v4.10.2
	golang.org/x/crypto v0.8.0
	google.golang.org/grpc v1.54.0
	google.golang.org/protobuf v1.30.0
	gorm.io/driver/mysql v1.5.0
	gorm.io/gorm v1.25.0
)

require (
	github.com/go-sql-driver/mysql v1.7.0 // indirect
	github.com/golang/protobuf v1.5.2 // indirect
	github.com/jinzhu/inflection v1.0.0 // indirect
	github.com/jinzhu/now v1.1.5 // indirect
	github.com/labstack/gommon v0.4.0 // indirect
	github.com/mattn/go-colorable v0.1.13 // indirect
	github.com/mattn/go-isatty v0.0.17 // indirect
	github.com/valyala/bytebufferpool v1.0.0 // indirect
	github.com/valyala/fasttemplate v1.2.2 // indirect
	golang.org/x/net v0.9.0 // indirect
	golang.org/x/sys v0.7.0 // indirect
	golang.org/x/text v0.9.0 // indirect
	golang.org/x/time v0.3.0 // indirect
	google.golang.org/genproto v0.0.0-20230110181048-76db0878b65f // indirect
)
